<svg width="35" height="35" viewBox="0 0 35 35" fill="none" xmlns="http://www.w3.org/2000/svg">
<path d="M35 17.5C35 27.165 27.165 35 17.5 35C7.83501 35 0 27.165 0 17.5C0 7.83501 7.83501 0 17.5 0C27.165 0 35 7.83501 35 17.5Z" fill="#149E4C" fill-opacity="0.12"/>
<path d="M31.6767 17.06C31.7059 20.7303 28.7394 23.7147 25.076 23.7147C23.8486 23.7147 22.6996 23.3797 21.7152 22.7962C21.2085 22.4959 20.6297 22.3394 20.0408 22.3394H15.149C14.5601 22.3394 13.9812 22.4959 13.4746 22.7962C12.4901 23.3796 11.3411 23.7146 10.1137 23.7146C6.45016 23.7146 3.48371 20.7301 3.51303 17.0597C3.54202 13.4261 6.4801 10.5126 10.1139 10.5127C11.3424 10.5127 12.4927 10.8484 13.4778 11.433C13.9832 11.733 14.5614 11.8879 15.1491 11.8879H20.0407C20.6284 11.8879 21.2066 11.7329 21.712 11.433C22.6971 10.8484 23.8473 10.5127 25.0759 10.5127C28.7097 10.5127 31.6478 13.4263 31.6767 17.06Z" fill="white"/>
<path d="M12.3925 23.3107C11.6824 23.5719 10.9148 23.7146 10.114 23.7146C6.45041 23.7146 3.48395 20.7301 3.51328 17.0597C3.54226 13.4261 6.48035 10.5126 10.1141 10.5127C10.9137 10.5127 11.6801 10.6549 12.3894 10.9154C9.88177 11.8347 8.09315 14.2286 8.07059 17.0597C8.04762 19.9277 9.85388 22.3769 12.3925 23.3107Z" fill="#42B06E"/>
<path d="M32.1895 17.0558C32.1744 15.1622 31.4285 13.3879 30.0892 12.0596C28.75 10.7314 26.9696 9.99992 25.0759 9.99998C23.7977 9.99998 22.544 10.3431 21.4504 10.9921C21.028 11.2427 20.5406 11.3752 20.0407 11.3752H15.1491C14.6492 11.3752 14.1618 11.2427 13.7394 10.9921C12.6457 10.343 11.3921 9.99998 10.1139 9.99998C10.114 9.99998 10.1138 9.99998 10.1139 9.99998C8.22035 9.99998 6.43979 10.7315 5.1007 12.0595C3.7614 13.3878 3.01553 15.1621 3.00036 17.0556C2.98511 18.9672 3.71779 20.7669 5.06351 22.1234C6.40937 23.4801 8.20298 24.2272 10.1138 24.2272C11.3907 24.2272 12.6432 23.8849 13.7361 23.2371C14.1611 22.9852 14.6497 22.852 15.149 22.852H20.0408C20.5401 22.852 21.0287 22.9852 21.4538 23.2371C22.5466 23.8849 23.7992 24.2272 25.076 24.2272C26.9868 24.2272 28.7803 23.4801 30.1262 22.1235C31.4719 20.7671 32.2046 18.9673 32.1895 17.0558ZM29.3983 21.4014C28.2464 22.5624 26.7114 23.2018 25.076 23.2018C23.9831 23.2018 22.9113 22.909 21.9766 22.3551C21.3933 22.0094 20.724 21.8266 20.0408 21.8266H15.149C14.4659 21.8266 13.7965 22.0094 13.2132 22.3551C12.2786 22.909 11.2068 23.2018 10.1138 23.2018C8.4784 23.2018 6.94332 22.5624 5.79154 21.4013C4.63982 20.2404 4.01276 18.6999 4.02581 17.0638C4.05241 13.7341 6.78357 11.0253 10.114 11.0253C11.2081 11.0253 12.2808 11.3187 13.2163 11.8739C13.7968 12.2185 14.4652 12.4006 15.1492 12.4006H20.0408C20.7248 12.4006 21.3931 12.2185 21.9738 11.8739C22.9091 11.3187 23.9818 11.0253 25.076 11.0253C28.4065 11.0253 31.1376 13.7342 31.1641 17.0639C31.1771 18.7001 30.5499 20.2404 29.3983 21.4014Z" fill="#050A0A"/>
<path d="M17.5948 11.8879C17.5948 11.6047 17.8244 11.3752 18.1075 11.3752H20.0406C20.5405 11.3752 21.0279 11.2427 21.4503 10.9921C22.5439 10.343 23.7976 9.99998 25.0758 9.99998C26.9695 9.99998 28.7499 10.7314 30.0891 12.0596C30.6784 12.644 31.1527 13.3147 31.5004 14.0439C31.6642 14.3873 31.4138 14.7843 31.0333 14.7843C30.8361 14.7843 30.6547 14.6728 30.5693 14.4951C29.5858 12.4464 27.488 11.0253 25.0758 11.0253C23.9817 11.0253 22.9089 11.3187 21.9736 11.8739C21.393 12.2185 20.7246 12.4006 20.0406 12.4006H18.1075C17.8243 12.4006 17.5948 12.1711 17.5948 11.8879Z" fill="#4A5959"/>
<path d="M14.4503 17.1138C14.4503 19.7565 12.3079 21.8989 9.66516 21.8989C7.02239 21.8989 4.88 19.7565 4.88 17.1138C4.88 14.471 7.02239 12.3286 9.66516 12.3286C12.3079 12.3286 14.4503 14.471 14.4503 17.1138ZM25.3878 12.3286C22.745 12.3286 20.6027 14.471 20.6027 17.1138C20.6027 19.7565 22.745 21.8989 25.3878 21.8989C28.0306 21.8989 30.173 19.7565 30.173 17.1138C30.173 14.471 28.0306 12.3286 25.3878 12.3286Z" fill="#149E4C"/>
<path d="M12.3236 15.9055L11.1152 17.1139L12.3236 18.3224C12.7241 18.7228 12.7241 19.372 12.3236 19.7725C11.9232 20.1729 11.274 20.1729 10.8735 19.7725L9.66508 18.564L8.45662 19.7725C8.05617 20.1729 7.40696 20.1729 7.00651 19.7725C6.60606 19.372 6.60606 18.7228 7.00651 18.3224L8.21497 17.1139L7.00658 15.9055C6.60613 15.505 6.60613 14.8558 7.00658 14.4554C7.40703 14.0549 8.05624 14.0549 8.45669 14.4554L9.66515 15.6638L10.8736 14.4554C11.2741 14.0549 11.9233 14.0549 12.3237 14.4554C12.7241 14.8558 12.7241 15.505 12.3236 15.9055ZM26.5962 18.3223C26.1957 18.7228 26.1957 19.372 26.5962 19.7724C26.9966 20.1729 27.6459 20.1729 28.0463 19.7724C28.4468 19.372 28.4468 18.7228 28.0463 18.3223C27.6459 17.9219 26.9966 17.9219 26.5962 18.3223ZM22.7292 18.3223C22.3288 18.7228 22.3288 19.372 22.7292 19.7724C23.1297 20.1729 23.7789 20.1729 24.1793 19.7724C24.5798 19.372 24.5798 18.7228 24.1793 18.3223C23.7789 17.9219 23.1297 17.9219 22.7292 18.3223ZM22.7292 14.4554C22.3288 14.8558 22.3288 15.505 22.7292 15.9055C23.1297 16.3059 23.7789 16.3059 24.1793 15.9055C24.5798 15.505 24.5798 14.8558 24.1793 14.4554C23.7789 14.0549 23.1297 14.0549 22.7292 14.4554ZM28.0463 15.9055C28.4468 15.505 28.4468 14.8558 28.0463 14.4554C27.6459 14.0549 26.9966 14.0549 26.5962 14.4554C26.1957 14.8558 26.1957 15.505 26.5962 15.9055C26.9966 16.3059 27.6459 16.3059 28.0463 15.9055Z" fill="white"/>
<path d="M26.4508 6.42415L25.3838 6.84521C25.1375 6.94241 24.9425 7.13742 24.8452 7.38383L24.4242 8.4508C24.3711 8.58533 24.1806 8.58533 24.1275 8.4508L23.7065 7.38383C23.6093 7.13752 23.4143 6.94251 23.1679 6.84521L22.1009 6.42415C21.9664 6.37106 21.9664 6.18064 22.1009 6.12755L23.1679 5.70649C23.4142 5.60928 23.6092 5.41427 23.7065 5.16786L24.1275 4.1009C24.1806 3.96637 24.3711 3.96637 24.4242 4.1009L24.8452 5.16786C24.9424 5.41417 25.1374 5.60918 25.3838 5.70649L26.4508 6.12755C26.5853 6.18074 26.5853 6.37106 26.4508 6.42415Z" fill="#149E4C"/>
<path d="M13.4508 29.4242L12.3838 29.8452C12.1375 29.9424 11.9425 30.1374 11.8452 30.3838L11.4242 31.4508C11.3711 31.5853 11.1806 31.5853 11.1275 31.4508L10.7065 30.3838C10.6093 30.1375 10.4143 29.9425 10.1679 29.8452L9.1009 29.4242C8.96637 29.3711 8.96637 29.1806 9.1009 29.1275L10.1679 28.7065C10.4142 28.6093 10.6092 28.4143 10.7065 28.1679L11.1275 27.1009C11.1806 26.9664 11.3711 26.9664 11.4242 27.1009L11.8452 28.1679C11.9424 28.4142 12.1374 28.6092 12.3838 28.7065L13.4508 29.1275C13.5853 29.1807 13.5853 29.3711 13.4508 29.4242Z" fill="#149E4C"/>
<path d="M20.9557 8.06516L20.4868 8.25017C20.3786 8.29289 20.2929 8.37857 20.2502 8.48684L20.0652 8.95567C20.0418 9.01478 19.9582 9.01478 19.9348 8.95567L19.7498 8.48684C19.7071 8.37862 19.6214 8.29293 19.5132 8.25017L19.0443 8.06516C18.9852 8.04183 18.9852 7.95817 19.0443 7.93484L19.5132 7.74982C19.6214 7.70711 19.7071 7.62143 19.7498 7.51315L19.9348 7.04433C19.9582 6.98522 20.0418 6.98522 20.0652 7.04433L20.2502 7.51315C20.2929 7.62138 20.3786 7.70707 20.4868 7.74982L20.9557 7.93484C21.0148 7.95821 21.0148 8.04183 20.9557 8.06516Z" fill="#149E4C"/>
<path d="M16.5074 30.0652L16.0386 30.2502C15.9304 30.2929 15.8447 30.3786 15.8019 30.4868L15.6169 30.9557C15.5936 31.0148 15.5099 31.0148 15.4866 30.9557L15.3016 30.4868C15.2589 30.3786 15.1732 30.2929 15.0649 30.2502L14.5961 30.0652C14.537 30.0418 14.537 29.9582 14.5961 29.9348L15.0649 29.7498C15.1731 29.7071 15.2588 29.6214 15.3016 29.5132L15.4866 29.0443C15.5099 28.9852 15.5936 28.9852 15.6169 29.0443L15.8019 29.5132C15.8446 29.6214 15.9303 29.7071 16.0386 29.7498L16.5074 29.9348C16.5665 29.9582 16.5665 30.0418 16.5074 30.0652Z" fill="#149E4C"/>
</svg>
