<svg width="35" height="35" viewBox="0 0 35 35" fill="none" xmlns="http://www.w3.org/2000/svg">
<path opacity="0.12" d="M35 17.5C35 27.1649 27.1649 35 17.5 35C7.8351 35 0 27.1649 0 17.5C0 7.8351 7.8351 0 17.5 0C27.1649 0 35 7.8351 35 17.5Z" fill="#149E4C"/>
<path d="M11.6884 26.0935V33.4514C11.6884 34.1939 12.4649 34.6796 13.1309 34.3539L13.8282 34.0128L17.4484 31.0968L21.0686 34.0128L21.7659 34.3539C22.432 34.6796 23.2084 34.1939 23.2084 33.4514V26.0977L11.6884 26.0935Z" fill="#414141"/>
<path d="M13.8283 26.9099V34.0126L17.4485 32.2417L21.0687 34.0126V26.9124L13.8283 26.9099Z" fill="#4F4F4F"/>
<path d="M23.2083 26.0977V20.8125C22.9019 20.8338 22.5927 20.8452 22.2809 20.8452C19.7161 20.8452 17.3222 20.1133 15.2948 18.8476H11.6884V26.0935C13.4309 26.94 15.3866 27.415 17.4531 27.415C19.516 27.415 21.4682 26.9415 23.2083 26.0977Z" fill="#232323"/>
<path d="M13.8283 26.91C14.9803 27.2383 16.1961 27.415 17.4532 27.415C18.707 27.415 19.9195 27.2391 21.0687 26.9124V21.7426H13.8283V26.91Z" fill="#232323"/>
<path d="M27.741 3.60967C24.9206 1.3512 21.3446 0 17.4531 0C14.5564 0 11.8341 0.748176 9.4684 2.0622L5.74988 7.36968L26.1799 21.3106L30.008 16.1275C30.4453 14.8113 30.682 13.4033 30.682 11.9399C30.682 8.78372 29.5799 5.88579 27.741 3.60967Z" fill="#37BE6E"/>
<path d="M22.2808 18.6223C14.9747 18.6223 9.05191 12.6891 9.05191 5.37014C9.05191 4.22788 9.19714 3.11982 9.46858 2.06242C9.04505 2.29763 8.63276 2.55075 8.23317 2.82117C8.17474 2.86071 8.11719 2.90079 8.0599 2.94107C8.05251 2.94625 8.04504 2.9513 8.03758 2.95649C8.03186 2.96053 8.02622 2.96457 8.0205 2.96855C7.72876 3.1727 7.44415 3.38641 7.16666 3.60862C5.32694 5.8848 4.22412 8.78301 4.22412 11.9399C4.22412 19.2589 10.1469 25.1921 17.4531 25.1921C23.2983 25.1921 28.2576 21.3941 30.0073 16.1274C27.8334 17.697 25.1652 18.6223 22.2808 18.6223Z" fill="#169449"/>
<path d="M17.1991 21.1552C22.3654 21.1552 26.5534 16.9598 26.5534 11.7845C26.5534 6.6092 22.3654 2.41379 17.1991 2.41379C12.0329 2.41379 7.84485 6.6092 7.84485 11.7845C7.84485 16.9598 12.0329 21.1552 17.1991 21.1552Z" fill="white"/>
<path d="M16.4416 10.4529C16.6575 10.4529 16.8325 10.2779 16.8325 10.062C16.8325 9.84611 16.6575 9.67113 16.4416 9.67113H14.9719C14.7561 9.67113 14.5811 9.84611 14.5811 10.062V13.5501C14.5811 13.766 14.756 13.941 14.9719 13.941H16.4416C16.6575 13.941 16.8325 13.766 16.8325 13.5501C16.8325 13.3342 16.6575 13.1592 16.4416 13.1592H15.3627V12.1969H16.3332C16.5491 12.1969 16.7241 12.022 16.7241 11.8061C16.7241 11.5902 16.5491 11.4152 16.3332 11.4152H15.3627V10.4529H16.4416Z" fill="#050A0A"/>
<path d="M13.258 11.5459C13.3953 11.3506 13.4763 11.113 13.4763 10.8567C13.4763 10.1945 12.9376 9.65582 12.2755 9.65582H11.2529C11.0371 9.65582 10.8621 9.8308 10.8621 10.0467V13.5669C10.8621 13.6709 10.9035 13.7706 10.9772 13.844C11.0505 13.9169 11.1496 13.9578 11.2529 13.9578H11.2547C11.2547 13.9578 12.1949 13.9536 12.4541 13.9536C13.192 13.9536 13.7925 13.3532 13.7925 12.6152C13.7925 12.1787 13.5823 11.7903 13.258 11.5459ZM11.6438 10.4375H12.2754C12.5066 10.4375 12.6946 10.6256 12.6946 10.8567C12.6946 11.0878 12.5066 11.2758 12.2754 11.2758C12.2001 11.2758 11.6438 11.2767 11.6438 11.2767V10.4375ZM12.454 13.1719C12.3057 13.1719 11.9348 13.1733 11.6438 13.1744V12.0595C11.7284 12.0591 12.454 12.0585 12.454 12.0585C12.761 12.0585 13.0107 12.3082 13.0107 12.6152C13.0107 12.9222 12.761 13.1719 12.454 13.1719Z" fill="#050A0A"/>
<path d="M19.5712 11.4671C19.1907 11.3268 18.8391 11.1781 18.6633 11.1019C18.6092 11.0785 18.5677 11.0477 18.5432 11.0128C18.4891 10.9356 18.4767 10.8316 18.5103 10.7347C18.5524 10.613 18.6587 10.5209 18.8095 10.4755C19.3319 10.3182 19.8106 10.6981 19.8236 10.7085C19.9887 10.8458 20.2341 10.824 20.3725 10.6594C20.5114 10.4941 20.49 10.2475 20.3248 10.1086C20.2924 10.0815 19.5206 9.44501 18.584 9.72698C18.1923 9.84498 17.8962 10.1191 17.7716 10.4789C17.6562 10.8121 17.7054 11.1795 17.9032 11.4616C18.0107 11.6148 18.1661 11.7385 18.3526 11.8193C18.5358 11.8986 18.9026 12.0537 19.3008 12.2005C19.4667 12.2618 19.8469 12.4363 19.7937 12.7346C19.7551 12.9513 19.4964 13.1754 19.1304 13.1754C18.7669 13.1754 18.4165 13.0283 18.1933 12.782C18.0483 12.622 17.8011 12.61 17.6412 12.7548C17.4813 12.8997 17.4691 13.1469 17.614 13.3069C17.9829 13.714 18.5499 13.9571 19.1304 13.9571C19.8484 13.9571 20.451 13.5007 20.5633 12.872C20.6474 12.4007 20.431 11.7842 19.5712 11.4671Z" fill="#050A0A"/>
<path d="M21.0939 10.046C21.0939 10.2619 21.2689 10.4369 21.4847 10.4369H22.062V13.5662C22.062 13.7821 22.237 13.9571 22.4529 13.9571C22.6688 13.9571 22.8438 13.7821 22.8438 13.5662V10.4368H23.4288C23.6447 10.4368 23.8197 10.2618 23.8197 10.0459C23.8197 9.83006 23.6447 9.65508 23.4288 9.65508H21.4847C21.2689 9.65513 21.0939 9.83011 21.0939 10.046Z" fill="#050A0A"/>
</svg>
