<svg width="35" height="35" viewBox="0 0 35 35" fill="none" xmlns="http://www.w3.org/2000/svg">
<g clip-path="url(#clip0)">
<circle cx="17.5" cy="17.5" r="17.5" fill="#E3F3EA"/>
<g clip-path="url(#clip1)">
<path d="M25.7033 24.4348C21.9411 28.2144 16.1049 28.8648 11.6396 26.0871L10.8133 26.9136L8.01824 27.6341L7.19197 26.8081L6.29544 25.9116L7.08646 23.1867L7.91272 22.3605C5.17026 17.9479 5.75047 12.094 9.56525 8.29684C14.0305 3.83181 21.238 3.81418 25.7033 8.29684C30.1683 12.7621 30.1859 19.9696 25.7033 24.4348Z" fill="#0B1324"/>
<path d="M25.7031 24.4348C21.941 28.2143 16.1047 28.8648 11.6395 26.0871L10.8132 26.9136L8.0181 27.6341L7.19183 26.8081L25.7031 8.2968C30.1681 12.7621 30.1858 19.9695 25.7031 24.4348Z" fill="#222222"/>
<path d="M24.4726 23.2044C20.6931 26.9837 14.5755 26.9837 10.7958 23.2044C7.01624 19.4246 7.01624 13.3071 10.7958 9.52756C14.5755 5.74804 20.6931 5.74804 24.4726 9.52756C28.2521 13.3071 28.2521 19.4246 24.4726 23.2044Z" fill="#F2F2F2"/>
<path d="M24.4724 23.2043C20.6929 26.9836 14.5753 26.9836 10.7956 23.2043L24.4724 9.5275C28.252 13.307 28.252 19.4246 24.4724 23.2043Z" fill="#FAFAFA"/>
<path d="M22.0289 14.608C22.0289 13.8697 21.7303 13.2192 21.2379 12.7621C20.9743 12.4808 20.6403 12.2698 20.2711 12.1293V11.0922C20.2711 10.5999 19.8843 10.2131 19.392 10.2131C18.8999 10.2131 18.5131 10.5999 18.5131 11.0922V11.9711H16.7553V11.0922C16.7553 10.5999 16.3685 10.2131 15.8761 10.2131C15.3838 10.2131 14.9972 10.5999 14.9972 11.0922V11.9711H14.1183C13.626 11.9711 13.2392 12.3577 13.2392 12.85C13.2392 13.3421 13.626 13.7289 14.1183 13.7289H14.9972V19.0028H14.1183C13.626 19.0028 13.2392 19.3894 13.2392 19.8817C13.2392 20.128 13.3447 20.3388 13.4855 20.5146C13.661 20.6553 13.8721 20.7608 14.1183 20.7608H14.9972V21.6398C14.9972 22.1319 15.3838 22.5187 15.8761 22.5187C16.3685 22.5187 16.7553 22.1319 16.7553 21.6398V20.7608H18.5131V21.6398C18.5131 22.1319 18.8999 22.5187 19.392 22.5187C19.8843 22.5187 20.2711 22.1319 20.2711 21.6398V20.6025C21.2908 20.2333 22.0289 19.2665 22.0289 18.1239C22.0289 17.4382 21.7653 16.8406 21.3434 16.3659C21.7653 15.8912 22.0289 15.2935 22.0289 14.608ZM19.392 19.0028H16.7553V17.2448H19.392C19.8843 17.2448 20.2711 17.6316 20.2711 18.1239C20.2711 18.616 19.8843 19.0028 19.392 19.0028ZM19.392 15.487H16.7553V13.7289H19.392C19.6383 13.7289 19.8491 13.8344 20.0249 13.9752C20.1656 14.1507 20.2711 14.3618 20.2711 14.608C20.2711 15.1001 19.8843 15.487 19.392 15.487Z" fill="#149E4C"/>
<path d="M21.3434 16.3659C21.7653 16.8406 22.0289 17.4382 22.0289 18.1239C22.0289 19.2665 21.2908 20.2333 20.2711 20.6025V21.6398C20.2711 22.1319 19.8843 22.5187 19.392 22.5187C18.8999 22.5187 18.5131 22.1319 18.5131 21.6398V20.7609H16.7553V21.6398C16.7553 22.1319 16.3685 22.5187 15.8761 22.5187C15.3838 22.5187 14.9972 22.1319 14.9972 21.6398V20.7609H14.1183C13.8721 20.7609 13.6613 20.6554 13.4855 20.5146L16.7553 17.2448V19.0028H19.392C19.8843 19.0028 20.2711 18.616 20.2711 18.1239C20.2711 17.6316 19.8843 17.2448 19.392 17.2448H16.7553L18.5131 15.487H19.392C19.8843 15.487 20.2711 15.1002 20.2711 14.6081C20.2711 14.3618 20.1656 14.151 20.0249 13.9752L21.2379 12.7621C21.7303 13.219 22.0289 13.8695 22.0289 14.6081C22.0289 15.2936 21.7653 15.8912 21.3434 16.3659Z" fill="#18AB53"/>
<path d="M10.8133 26.9137L9.5652 28.1615L8.33473 29.3922L5.3286 28.8825L5.11757 28.6715L4.60785 25.6654L7.08641 23.1868L10.8133 26.9137Z" fill="#149E4C"/>
<path d="M10.8133 26.9136L9.5652 28.1615L8.33473 29.3922L5.3286 28.8824L5.22308 28.7769L8.94996 25.05L10.8133 26.9136Z" fill="#18AB53"/>
<path d="M8.33472 29.3922L3.56345 34.1635C2.52615 35.2008 0.856232 35.2008 -0.163437 34.1635C-1.20073 33.1438 -1.20073 31.4739 -0.163437 30.4366L4.60783 25.6653L8.33472 29.3922Z" fill="#0B1324"/>
<path d="M6.47131 27.5287L8.33464 29.3922L3.56337 34.1635C2.52608 35.2008 0.856155 35.2008 -0.163513 34.1635L6.47131 27.5287Z" fill="#222222"/>
</g>
</g>
<defs>
<clipPath id="clip0">
<rect width="35" height="35" rx="17.5" fill="white"/>
</clipPath>
<clipPath id="clip1">
<rect width="30" height="30" fill="white" transform="translate(-1 5)"/>
</clipPath>
</defs>
</svg>
