<svg width="16" height="16" viewBox="0 0 16 16" fill="none" xmlns="http://www.w3.org/2000/svg">
<mask id="mask0" mask-type="alpha" maskUnits="userSpaceOnUse" x="0" y="0" width="16" height="16">
<circle cx="8" cy="8" r="8" fill="#C4C4C4"/>
</mask>
<g mask="url(#mask0)">
<rect x="-2.8502" y="0.35" width="21.7" height="15.3" rx="2.45" fill="white" stroke="#F5F5F5" stroke-width="0.7"/>
<mask id="mask1" mask-type="alpha" maskUnits="userSpaceOnUse" x="-4" y="0" width="24" height="16">
<rect x="-2.8502" y="0.35" width="21.7" height="15.3" rx="2.45" fill="white" stroke="white" stroke-width="0.7"/>
</mask>
<g mask="url(#mask1)">
<path fill-rule="evenodd" clip-rule="evenodd" d="M-3.2002 5.33333H19.1998V0H-3.2002V5.33333Z" fill="#FFA44A"/>
<path fill-rule="evenodd" clip-rule="evenodd" d="M-3.2002 16.0003H19.1998V10.667H-3.2002V16.0003Z" fill="#1A9F0B"/>
<path d="M7.9999 10.0671C9.14129 10.0671 10.0666 9.14178 10.0666 8.00039C10.0666 6.859 9.14129 5.93372 7.9999 5.93372C6.85851 5.93372 5.93324 6.859 5.93324 8.00039C5.93324 9.14178 6.85851 10.0671 7.9999 10.0671Z" fill="#181A93" fill-opacity="0.15" stroke="#181A93" stroke-width="0.933333"/>
<path fill-rule="evenodd" clip-rule="evenodd" d="M7.99964 8.53346C8.29419 8.53346 8.53298 8.29468 8.53298 8.00013C8.53298 7.70558 8.29419 7.4668 7.99964 7.4668C7.70509 7.4668 7.46631 7.70558 7.46631 8.00013C7.46631 8.29468 7.70509 8.53346 7.99964 8.53346Z" fill="#181A93"/>
</g>
</g>
</svg>
