<svg width="115" height="41" viewBox="0 0 115 41" fill="none" xmlns="http://www.w3.org/2000/svg">
<path d="M56.8281 17H54.1143V7.15625H56.8281V17ZM60.7413 17H59.4835V7.15625H61.2471L67.2286 13.917V7.15625H68.4796V17H66.7159L60.7413 10.2461V17ZM80.6711 12.0645C80.6711 12.543 80.6073 12.9987 80.4796 13.4316C80.352 13.86 80.172 14.2565 79.9396 14.6211C79.7117 14.9857 79.4383 15.3161 79.1193 15.6123C78.8003 15.904 78.4471 16.1523 78.0597 16.3574C77.6769 16.5625 77.2645 16.722 76.8224 16.8359C76.3849 16.9453 75.9338 17 75.4689 17H71.1281V7.15625H75.4689C75.9338 7.15625 76.3849 7.21094 76.8224 7.32031C77.2599 7.42969 77.6701 7.58691 78.0529 7.79199C78.4403 7.99251 78.7935 8.23861 79.1125 8.53027C79.436 8.82194 79.7117 9.15007 79.9396 9.51465C80.172 9.87467 80.352 10.2712 80.4796 10.7041C80.6073 11.1325 80.6711 11.5859 80.6711 12.0645ZM77.9162 12.0645C77.9162 11.5312 77.8501 11.0254 77.7179 10.5469C77.5903 10.0638 77.3898 9.63997 77.1164 9.27539C76.8429 8.91081 76.4943 8.62142 76.0705 8.40723C75.6512 8.19303 75.1476 8.08594 74.5597 8.08594H73.842V16.043H74.5597C75.1385 16.043 75.6375 15.9359 76.0568 15.7217C76.4806 15.5029 76.8293 15.2113 77.1027 14.8467C77.3807 14.4775 77.5858 14.0537 77.7179 13.5752C77.8501 13.0967 77.9162 12.5931 77.9162 12.0645ZM85.4729 17H82.759V7.15625H85.4729V17ZM97.5003 12.29V12.4199C97.4912 12.8027 97.4502 13.1992 97.3773 13.6094C97.3089 14.0195 97.2109 14.4297 97.0833 14.8398C96.9557 15.25 96.803 15.6556 96.6253 16.0566C96.4476 16.4577 96.2471 16.8405 96.0238 17.2051C95.805 17.5742 95.568 17.9183 95.3128 18.2373C95.0576 18.5609 94.7887 18.8457 94.5062 19.0918L93.4876 18.5039C93.6471 18.235 93.7907 17.9411 93.9183 17.6221C94.0504 17.3076 94.1689 16.9772 94.2738 16.6309C94.3786 16.2845 94.4674 15.929 94.5404 15.5645C94.6178 15.1999 94.6816 14.8376 94.7318 14.4775C94.7819 14.1175 94.8183 13.7643 94.8411 13.418C94.8685 13.0671 94.8821 12.7344 94.8821 12.4199C94.8821 12.1738 94.8799 11.8958 94.8753 11.5859C94.8753 11.2715 94.8571 10.9525 94.8206 10.6289C94.7887 10.3053 94.734 9.99089 94.6566 9.68555C94.5791 9.37565 94.4629 9.09993 94.3079 8.8584C94.1575 8.61686 93.9616 8.42318 93.72 8.27734C93.4831 8.13151 93.1868 8.05859 92.8314 8.05859C92.5169 8.05859 92.2458 8.11328 92.0179 8.22266C91.7946 8.32747 91.6032 8.47103 91.4437 8.65332C91.2887 8.83105 91.1634 9.03841 91.0677 9.27539C90.9765 9.51237 90.9036 9.76302 90.8489 10.0273C90.7988 10.2871 90.7646 10.5514 90.7464 10.8203C90.7327 11.0846 90.7259 11.3353 90.7259 11.5723V13.4795H93.6722V14.6074H90.7259V17H88.012V11.9961C88.012 11.2806 88.126 10.6152 88.3538 10C88.5817 9.38477 88.903 8.85156 89.3177 8.40039C89.737 7.94466 90.2383 7.58919 90.8216 7.33398C91.4095 7.07422 92.0635 6.94434 92.7835 6.94434C93.2711 6.94434 93.7269 7.01497 94.1507 7.15625C94.5791 7.29297 94.9687 7.48438 95.3196 7.73047C95.6706 7.97201 95.9827 8.26139 96.2562 8.59863C96.5342 8.93132 96.7643 9.2959 96.9466 9.69238C97.1335 10.0889 97.2747 10.5081 97.3704 10.9502C97.4661 11.3923 97.5094 11.8389 97.5003 12.29ZM63.0557 24.5967L61.8867 25.0889C61.7956 24.7926 61.6725 24.5215 61.5176 24.2754C61.3672 24.0293 61.1849 23.8197 60.9707 23.6465C60.7611 23.4688 60.5218 23.332 60.2529 23.2363C59.984 23.1361 59.6901 23.0859 59.3711 23.0859C59.0293 23.0859 58.7148 23.1429 58.4277 23.2568C58.1452 23.3662 57.89 23.5189 57.6621 23.7148C57.4388 23.9108 57.2428 24.1387 57.0742 24.3984C56.9056 24.6582 56.7643 24.9362 56.6504 25.2324C56.5365 25.5241 56.4521 25.8271 56.3975 26.1416C56.3428 26.4561 56.3154 26.7637 56.3154 27.0645C56.3154 27.543 56.3701 28.0192 56.4795 28.4932C56.5934 28.9671 56.7712 29.3932 57.0127 29.7715C57.2588 30.1497 57.5755 30.4574 57.9629 30.6943C58.3503 30.9268 58.8197 31.043 59.3711 31.043C59.6628 31.043 59.9385 30.9951 60.1982 30.8994C60.458 30.7992 60.6927 30.6647 60.9023 30.4961C61.1165 30.3229 61.3034 30.1201 61.4629 29.8877C61.6224 29.6553 61.75 29.4046 61.8457 29.1357L63.0283 29.6074C62.8551 30.0404 62.6182 30.4209 62.3174 30.749C62.0166 31.0726 61.6725 31.3415 61.2852 31.5557C60.9023 31.7699 60.4899 31.9294 60.0479 32.0342C59.6104 32.1436 59.1683 32.1982 58.7217 32.1982C58.2386 32.1982 57.7738 32.139 57.3271 32.0205C56.8851 31.902 56.4727 31.7334 56.0898 31.5146C55.707 31.2959 55.3584 31.0316 55.0439 30.7217C54.734 30.4118 54.4674 30.0677 54.2441 29.6895C54.0254 29.3112 53.8545 28.901 53.7314 28.459C53.613 28.0124 53.5537 27.5475 53.5537 27.0645C53.5537 26.5814 53.613 26.1188 53.7314 25.6768C53.8545 25.2301 54.0254 24.8177 54.2441 24.4395C54.4674 24.0566 54.734 23.7103 55.0439 23.4004C55.3584 23.0905 55.707 22.8262 56.0898 22.6074C56.4727 22.3887 56.8851 22.2201 57.3271 22.1016C57.7738 21.9831 58.2386 21.9238 58.7217 21.9238C59.1865 21.9238 59.64 21.9785 60.082 22.0879C60.5286 22.1973 60.9434 22.3636 61.3262 22.5869C61.709 22.8057 62.0485 23.0837 62.3447 23.4209C62.6455 23.7536 62.8825 24.1455 63.0557 24.5967ZM74.4337 27.29V27.4199C74.4246 27.8027 74.3835 28.1992 74.3106 28.6094C74.2423 29.0195 74.1443 29.4297 74.0167 29.8398C73.8891 30.25 73.7364 30.6556 73.5587 31.0566C73.3809 31.4577 73.1804 31.8405 72.9571 32.2051C72.7384 32.5742 72.5014 32.9183 72.2462 33.2373C71.991 33.5609 71.7221 33.8457 71.4395 34.0918L70.421 33.5039C70.5805 33.235 70.724 32.9411 70.8516 32.6221C70.9838 32.3076 71.1023 31.9772 71.2071 31.6309C71.3119 31.2845 71.4008 30.929 71.4737 30.5645C71.5512 30.1999 71.615 29.8376 71.6651 29.4775C71.7152 29.1175 71.7517 28.7643 71.7745 28.418C71.8018 28.0671 71.8155 27.7344 71.8155 27.4199C71.8155 27.1738 71.8132 26.8958 71.8087 26.5859C71.8087 26.2715 71.7904 25.9525 71.754 25.6289C71.7221 25.3053 71.6674 24.9909 71.5899 24.6855C71.5124 24.3757 71.3962 24.0999 71.2413 23.8584C71.0909 23.6169 70.8949 23.4232 70.6534 23.2773C70.4164 23.1315 70.1202 23.0586 69.7647 23.0586C69.4503 23.0586 69.1791 23.1133 68.9513 23.2227C68.7279 23.3275 68.5365 23.471 68.377 23.6533C68.2221 23.8311 68.0968 24.0384 68.0011 24.2754C67.9099 24.5124 67.837 24.763 67.7823 25.0273C67.7322 25.2871 67.698 25.5514 67.6798 25.8203C67.6661 26.0846 67.6593 26.3353 67.6593 26.5723V28.4795H70.6055V29.6074H67.6593V32H64.9454V26.9961C64.9454 26.2806 65.0593 25.6152 65.2872 25C65.5151 24.3848 65.8363 23.8516 66.2511 23.4004C66.6703 22.9447 67.1716 22.5892 67.755 22.334C68.3429 22.0742 68.9968 21.9443 69.7169 21.9443C70.2045 21.9443 70.6602 22.015 71.0841 22.1562C71.5124 22.293 71.9021 22.4844 72.253 22.7305C72.6039 22.972 72.9161 23.2614 73.1895 23.5986C73.4675 23.9313 73.6977 24.2959 73.88 24.6924C74.0668 25.0889 74.2081 25.5081 74.3038 25.9502C74.3995 26.3923 74.4428 26.8389 74.4337 27.29ZM84.6906 28.9922C84.6906 29.416 84.6359 29.7897 84.5265 30.1133C84.4217 30.4368 84.2713 30.7171 84.0754 30.9541C83.8839 31.1911 83.6561 31.3893 83.3918 31.5488C83.1274 31.7083 82.838 31.8359 82.5236 31.9316C82.2137 32.0273 81.8833 32.0957 81.5324 32.1367C81.186 32.1777 80.8328 32.1982 80.4728 32.1982C79.9989 32.1982 79.5614 32.1618 79.1603 32.0889C78.7593 32.0205 78.381 31.9111 78.0255 31.7607C77.6746 31.6058 77.3351 31.4076 77.007 31.166C76.6834 30.9245 76.3599 30.6305 76.0363 30.2842L77.4308 28.8691C77.5584 29.1836 77.7339 29.4753 77.9572 29.7441C78.1805 30.0085 78.4243 30.2363 78.6886 30.4277C78.9575 30.6191 79.2355 30.7695 79.5226 30.8789C79.8097 30.9883 80.0809 31.043 80.3361 31.043C80.6369 31.043 80.9194 31.0225 81.1838 30.9814C81.4481 30.9359 81.6782 30.863 81.8742 30.7627C82.0701 30.6624 82.2228 30.5303 82.3322 30.3662C82.4461 30.1976 82.5031 29.988 82.5031 29.7373C82.5031 29.5459 82.4598 29.3818 82.3732 29.2451C82.2866 29.1084 82.1727 28.9922 82.0314 28.8965C81.8947 28.7962 81.7375 28.7119 81.5597 28.6436C81.382 28.5752 81.1997 28.5182 81.0129 28.4727C80.8306 28.4225 80.6505 28.3792 80.4728 28.3428C80.2951 28.3018 80.1379 28.2607 80.0011 28.2197C79.7323 28.1423 79.452 28.0602 79.1603 27.9736C78.8686 27.8825 78.5815 27.7799 78.299 27.666C78.0164 27.5521 77.7476 27.4222 77.4923 27.2764C77.2417 27.126 77.0207 26.9505 76.8293 26.75C76.6379 26.5449 76.4852 26.3102 76.3713 26.0459C76.2573 25.777 76.2004 25.4694 76.2004 25.123C76.2004 24.7083 76.2505 24.3415 76.3507 24.0225C76.4556 23.6989 76.6014 23.4186 76.7882 23.1816C76.9751 22.9447 77.1961 22.7464 77.4513 22.5869C77.7065 22.4229 77.9868 22.293 78.2921 22.1973C78.5975 22.097 78.9211 22.0264 79.2629 21.9854C79.6092 21.9398 79.9624 21.917 80.3224 21.917C80.8146 21.917 81.2612 21.9626 81.6623 22.0537C82.0679 22.1449 82.4416 22.2747 82.7834 22.4434C83.1252 22.612 83.4373 22.8148 83.7199 23.0518C84.007 23.2842 84.2759 23.5439 84.5265 23.8311L83.132 25.2461C83.0226 24.918 82.8699 24.6217 82.674 24.3574C82.4826 24.0931 82.2684 23.8675 82.0314 23.6807C81.7944 23.4893 81.5461 23.3434 81.2863 23.2432C81.0265 23.1383 80.7759 23.0859 80.5343 23.0859C80.2199 23.0859 79.9305 23.1087 79.6662 23.1543C79.4018 23.1953 79.174 23.266 78.9826 23.3662C78.7957 23.4619 78.6499 23.5941 78.5451 23.7627C78.4403 23.9268 78.3879 24.1318 78.3879 24.3779C78.3879 24.5739 78.4266 24.7402 78.5041 24.877C78.5815 25.0137 78.6841 25.1299 78.8117 25.2256C78.9438 25.3213 79.092 25.401 79.256 25.4648C79.4201 25.5241 79.5887 25.5765 79.7619 25.6221C79.9396 25.6676 80.1128 25.7087 80.2814 25.7451C80.4546 25.777 80.6118 25.8135 80.7531 25.8545C81.0265 25.932 81.3136 26.014 81.6144 26.1006C81.9152 26.1872 82.2114 26.2897 82.5031 26.4082C82.7948 26.5221 83.0727 26.6543 83.3371 26.8047C83.6014 26.9551 83.8338 27.1351 84.0343 27.3447C84.2349 27.5498 84.3944 27.7891 84.5129 28.0625C84.6313 28.3314 84.6906 28.6413 84.6906 28.9922ZM89.5198 32H86.8059V22.1562H89.5198V32ZM93.4329 32H92.1751V22.1562H93.9388L99.9202 28.917V22.1562H101.171V32H99.4075L93.4329 25.2461V32ZM114.094 27.0645C114.094 27.8574 113.957 28.5729 113.684 29.2109C113.411 29.8444 113.032 30.3822 112.549 30.8242C112.066 31.2663 111.494 31.6058 110.833 31.8428C110.173 32.0798 109.457 32.1982 108.687 32.1982C107.917 32.1982 107.201 32.0798 106.54 31.8428C105.88 31.6058 105.308 31.2663 104.825 30.8242C104.342 30.3822 103.963 29.8444 103.69 29.2109C103.416 28.5729 103.28 27.8574 103.28 27.0645C103.28 26.2578 103.414 25.5378 103.683 24.9043C103.956 24.2663 104.332 23.7285 104.811 23.291C105.294 22.849 105.866 22.5117 106.527 22.2793C107.188 22.0423 107.908 21.9238 108.687 21.9238C109.466 21.9238 110.186 22.0423 110.847 22.2793C111.508 22.5117 112.078 22.849 112.556 23.291C113.039 23.7285 113.415 24.2663 113.684 24.9043C113.957 25.5378 114.094 26.2578 114.094 27.0645ZM111.332 27.0645C111.332 26.7637 111.319 26.4561 111.291 26.1416C111.264 25.8271 111.214 25.5218 111.141 25.2256C111.068 24.9294 110.968 24.6514 110.84 24.3916C110.717 24.1318 110.558 23.9062 110.362 23.7148C110.166 23.5189 109.929 23.3662 109.651 23.2568C109.377 23.1429 109.056 23.0859 108.687 23.0859C108.313 23.0859 107.987 23.1429 107.709 23.2568C107.431 23.3662 107.194 23.5166 106.998 23.708C106.802 23.8994 106.643 24.125 106.52 24.3848C106.397 24.6445 106.299 24.9225 106.226 25.2188C106.158 25.5104 106.11 25.8158 106.082 26.1348C106.055 26.4492 106.041 26.7591 106.041 27.0645C106.041 27.3652 106.055 27.6729 106.082 27.9873C106.11 28.3018 106.16 28.6071 106.233 28.9033C106.306 29.195 106.404 29.4707 106.527 29.7305C106.654 29.9902 106.816 30.2181 107.012 30.4141C107.208 30.6055 107.443 30.7581 107.716 30.8721C107.994 30.986 108.318 31.043 108.687 31.043C109.047 31.043 109.361 30.986 109.63 30.8721C109.899 30.7536 110.132 30.5964 110.328 30.4004C110.524 30.1999 110.685 29.9697 110.813 29.71C110.945 29.4456 111.048 29.1676 111.121 28.876C111.198 28.5798 111.253 28.2767 111.285 27.9668C111.316 27.6569 111.332 27.3561 111.332 27.0645Z" fill="black"/>
<path d="M20.5 0C9.19578 0 0 9.19578 0 20.5C0 31.8042 9.19578 41 20.5 41C31.8042 41 41 31.8042 41 20.5C41 9.19578 31.8042 0 20.5 0ZM35.4336 12.3171C36.3294 12.3171 37.1512 12.9038 37.5279 13.8106C37.8039 14.4806 37.7858 15.2372 37.4768 15.8341C37.1708 16.4286 36.5975 16.8352 35.8221 17.0137C34.5276 17.3094 29.5267 18.3601 25.8769 19.1237C25.2045 19.2637 24.5549 19.3573 24.0783 19.3817C24.3826 19.1088 24.8686 18.725 25.5324 18.2909C27.6754 16.8895 32.7959 13.5432 34.0574 12.752C34.5166 12.4634 34.9798 12.3171 35.4336 12.3171ZM31.8168 7.09522C32.4381 7.09522 33.0617 7.36418 33.5289 7.83132C34.0408 8.34329 34.3137 9.04951 34.2571 9.72112C34.2036 10.3864 33.8309 10.9826 33.1805 11.4442C32.1251 12.1937 28.0411 14.9887 24.7994 17.1993C24.1436 17.6476 23.6048 17.9496 23.236 18.1258C23.4122 17.7561 23.7149 17.2174 24.1624 16.5615C26.3723 13.3238 29.1634 9.2414 29.9176 8.18128C30.4232 7.47113 31.0799 7.09522 31.8168 7.09522ZM26.5729 3.64355C26.9047 3.64355 27.2437 3.71119 27.552 3.83938C28.222 4.1162 28.7434 4.66513 28.9479 5.30608C29.1516 5.94152 29.0344 6.63437 28.6113 7.30834C27.9224 8.40699 25.2186 12.5499 23.0716 15.8333C22.6383 16.4978 22.2569 16.9823 21.9832 17.2866C22.0037 16.8785 22.0776 16.2643 22.2404 15.4881C22.7641 12.9793 24.0201 6.98905 24.3496 5.54358C24.6209 4.3537 25.453 3.64355 26.5729 3.64355ZM22.6556 20.8641C22.6556 22.0532 21.6891 23.0205 20.5 23.0205C19.3109 23.0205 18.3436 22.0532 18.3436 20.8641C18.3436 19.675 19.3109 18.7077 20.5 18.7077C21.6891 18.7077 22.6556 19.675 22.6556 20.8641ZM18.6479 3.25505C19.0821 2.74073 19.7733 2.4348 20.4984 2.4348C21.2235 2.4348 21.9148 2.74073 22.3489 3.25505C22.7807 3.76545 22.9379 4.44965 22.805 5.23451C22.573 6.60291 21.5428 12.0851 20.9491 15.2309C20.7776 16.1376 20.6125 16.8171 20.4984 17.2096C20.3836 16.8171 20.2192 16.1376 20.0478 15.2309C19.4533 12.0812 18.4222 6.59583 18.1926 5.2353C18.0597 4.45044 18.2178 3.76545 18.6479 3.25505ZM12.0513 5.30372C12.2558 4.66277 12.7772 4.11384 13.4473 3.83702C13.7555 3.70961 14.0945 3.64119 14.4264 3.64119C15.5462 3.64119 16.3767 4.35056 16.648 5.54122C16.9776 6.97646 18.2343 12.9738 18.758 15.4849C18.9208 16.2619 18.9932 16.8753 19.016 17.2835C18.7439 16.9807 18.3609 16.4955 17.926 15.8309C15.7782 12.5452 13.0737 8.4007 12.3879 7.30598C11.9656 6.63279 11.8492 5.93994 12.0513 5.30372ZM7.46799 7.83368C7.93513 7.36654 8.55956 7.09758 9.18006 7.09758C9.91694 7.09758 10.5728 7.4727 11.0785 8.18364C11.6683 9.01412 13.6053 11.8335 16.8336 16.5631C17.2811 17.219 17.5823 17.7577 17.7585 18.1265C17.3912 17.9488 16.8525 17.6468 16.1974 17.2009C11.467 13.9726 8.64685 12.0356 7.81716 11.4458C7.16757 10.9849 6.7948 10.3888 6.73896 9.72427C6.68312 9.05265 6.95602 8.34565 7.46799 7.83368ZM3.4729 13.8122C3.8496 12.9046 4.67142 12.3187 5.56717 12.3187C6.02095 12.3187 6.48416 12.465 6.94343 12.7528C7.80694 13.2939 10.5949 15.1066 15.4684 18.2925C16.1329 18.7258 16.6182 19.1088 16.9233 19.3817C16.4467 19.3573 15.7955 19.2645 15.1231 19.1245C9.40891 17.9276 6.15621 17.2371 5.17867 17.0137C4.40246 16.8352 3.82994 16.4278 3.52401 15.8341C3.21416 15.2372 3.19607 14.4814 3.4729 13.8122ZM2.07068 20.8649C2.07068 19.6963 2.85004 18.5119 4.34191 18.5119C4.50942 18.5119 4.68637 18.5276 4.87118 18.5583C6.14363 18.773 11.0085 19.6868 14.866 20.4143C15.7735 20.5849 16.453 20.7493 16.8462 20.8633C16.4522 20.9782 15.7727 21.1425 14.866 21.314C11.0085 22.0422 6.14284 22.9545 4.87118 23.1699C3.04508 23.4814 2.07068 22.1657 2.07068 20.8649ZM3.47211 27.9161C3.19607 27.2468 3.21416 26.4911 3.52323 25.8934C3.82915 25.2988 4.40168 24.8922 5.17789 24.7137C6.52662 24.4054 11.9876 23.258 15.1224 22.6029C15.7948 22.4629 16.4444 22.3694 16.9225 22.345C16.6182 22.6187 16.1329 23.0016 15.4684 23.435C10.6672 26.5752 7.79908 28.4391 6.94343 28.9754C5.57818 29.8334 4.03992 29.2845 3.47211 27.9161ZM9.1832 34.633C8.56192 34.633 7.93827 34.3641 7.47113 33.8969C6.95916 33.385 6.68627 32.6787 6.74289 32.0071C6.79637 31.341 7.16914 30.7457 7.81952 30.284C8.65 29.6942 11.4694 27.7572 16.199 24.5289C16.8549 24.0814 17.3936 23.7802 17.7624 23.6041C17.5863 23.9729 17.2843 24.5116 16.8376 25.1667C13.6093 29.8963 11.6723 32.7165 11.0824 33.547C10.576 34.2579 9.9193 34.633 9.1832 34.633ZM14.4264 38.0855C14.0937 38.0855 13.7555 38.0178 13.4473 37.8896C12.7772 37.6128 12.2558 37.0639 12.0513 36.4229C11.8492 35.7867 11.9648 35.0939 12.3887 34.4199C12.9258 33.5619 14.7897 30.693 17.9284 25.8949C18.3617 25.2304 18.7447 24.746 19.0176 24.4416C18.9963 24.8498 18.9232 25.464 18.7596 26.2402C18.2351 28.7497 16.9799 34.7408 16.6504 36.1839C16.3767 37.3753 15.5462 38.0855 14.4264 38.0855ZM22.3521 38.4724C21.9172 38.9867 21.2251 39.2934 20.5 39.2934C19.7749 39.2934 19.0836 38.9875 18.6495 38.4732C18.2186 37.9628 18.0613 37.2786 18.1942 36.4914C18.4238 35.1324 19.4548 29.6455 20.0494 26.4958C20.2208 25.589 20.386 24.9095 20.5 24.5163C20.614 24.9103 20.7784 25.589 20.9506 26.4958C21.5444 29.6415 22.5746 35.1245 22.8066 36.4914C22.9403 37.2778 22.7822 37.962 22.3521 38.4724ZM28.9495 36.4245C28.745 37.0655 28.2236 37.6144 27.5535 37.8912C27.2437 38.0186 26.9047 38.0863 26.5721 38.0863C25.453 38.0863 24.6217 37.3761 24.3504 36.1862C24.0421 34.8399 22.8947 29.3781 22.2396 26.2425C22.0768 25.4663 22.0044 24.8521 21.9816 24.444C22.2553 24.7483 22.6383 25.2328 23.0724 25.8973C25.2186 29.1791 27.9224 33.3228 28.6113 34.4223C29.0352 35.0954 29.1516 35.7883 28.9495 36.4245ZM33.5328 33.8946C33.0657 34.3617 32.4404 34.6307 31.8207 34.6307C31.0815 34.6315 30.4248 34.2563 29.9207 33.5454C29.1681 32.4853 26.3747 28.4037 24.1648 25.1659C23.7173 24.51 23.4161 23.9713 23.2399 23.6017C23.6088 23.7779 24.1475 24.0814 24.8026 24.5273C28.0427 26.7388 32.1282 29.533 33.1836 30.2825C33.8332 30.7433 34.206 31.3402 34.2618 32.0048C34.3177 32.6756 34.0448 33.3818 33.5328 33.8946ZM37.5271 27.9161C36.9609 29.2829 35.4234 29.8342 34.0566 28.9754C32.9579 28.2865 28.815 25.5827 25.5316 23.4358C24.8671 23.0016 24.3818 22.6187 24.0767 22.3458C24.5533 22.3701 25.2037 22.4637 25.8753 22.6037C29.7099 23.4067 34.5481 24.4243 35.8198 24.7145C36.596 24.893 37.1685 25.3012 37.4752 25.8942C37.7858 26.4918 37.8039 27.2476 37.5271 27.9161ZM36.1288 23.1692C35.1198 22.9993 31.7578 22.3749 26.1332 21.3132C25.2265 21.1433 24.547 20.9789 24.1538 20.8641C24.547 20.7501 25.2265 20.5857 26.1332 20.4135C31.7562 19.3518 35.1198 18.7282 36.1288 18.5575C37.9541 18.2516 38.9293 19.5626 38.9293 20.8633C38.9293 22.1641 37.9541 23.4798 36.1288 23.1692Z" fill="#2A8E58"/>
</svg>
