<svg width="15" height="15" viewBox="0 0 15 15" fill="none" xmlns="http://www.w3.org/2000/svg">
<path d="M7.8543 0.583759L9.76232 5.0997L14.6471 5.51934C14.9859 5.5486 15.1237 5.97131 14.8665 6.19384L11.1614 9.40389L12.2717 14.1793C12.3487 14.5112 11.9891 14.7722 11.698 14.5959L7.50011 12.0642L3.30218 14.5959C3.01035 14.7714 2.65154 14.5104 2.72854 14.1793L3.83885 9.40389L0.132935 6.19307C-0.124238 5.97055 0.0128183 5.54783 0.35238 5.51857L5.23714 5.09893L7.14515 0.583759C7.27759 0.269606 7.72187 0.269606 7.8543 0.583759Z" fill="#FFB933"/>
</svg>
